[
	{
		"_id": "co-100",
		"_parentId": "course",
		"_type": "page",
		"_classes": "zh_cn",
		"height":"570",
		"title": "简介",
		"displayTitle": "简介",
		"pageBody": "本章节将介绍如何利用 Live API（应用编程接口）改善及推广视频。",
		"body": "本章节将介绍如何利用 Live API（应用编程接口）改善及推广视频。",
		"_graphic": {
			"src": "course/en/images/co-100.png",
			"alt": "利用合成器和笔记本电脑编辑声音"
		},
		"linkText": "查看",
		"durationLabel": "用时：",
		"duration": "4 分钟",
		"_pageLevelProgress": {
			"_isEnabled": true
		}
	},
	{
		"_id": "co-200",
		"_parentId": "course",
		"_type": "page",
		"_classes": "zh_cn",
		"height":"570",
		"title": "入门知识",
		"displayTitle": "入门知识",
		"pageBody": "结合手头资源及自己的需求和目标，评估各种用于改善视频质量和功能的方式。",
		"body": "结合手头资源及自己的需求和目标，评估各种用于改善视频质量和功能的方式。",
		"_graphic": {
			"src": "course/en/images/co-200.png",
			"alt": "拍摄团队在现场拍摄视频"
		},
		"linkText": "查看",
		"durationLabel": "用时：",
		"duration": "6 分钟",
		"_pageLevelProgress": {
			"_isEnabled": true
		}
	},
	{
		"_id": "co-300",
		"_parentId": "course",
		"_type": "page",
		"_classes": "zh_cn",
		"height":"570",
		"title": "通过控制面板直播",
		"displayTitle": "通过控制面板直播",
		"pageBody": "无需掌握大量专业技术知识，即可通过这款工具使用一些高级功能进行直播。",
		"body": "深入探索这款可供任何人使用的高级直播工具，学会借助 API 在 Facebook 小组、活动、个人主页及公共主页开始直播。",
		"_graphic": {
			"src": "course/en/images/co-300.png",
			"alt": "一名游戏玩家通过网络摄像头直播的画面"
		},
		"linkText": "查看",
		"durationLabel": "用时：",
		"duration": "8 分钟",
		"_pageLevelProgress": {
			"_isEnabled": true
		}
	},
	{
		"_id": "co-400",
		"_parentId": "course",
		"_type": "page",
		"_classes": "zh_cn",
		"height":"570",
		"title": "通过主页发布工具直播",
		"displayTitle": "通过主页发布工具直播",
		"pageBody": "借助主页中这个简单易用的界面，无需掌握编程技能，即可使用一些直播的高级功能。",
		"body": "借助主页中这个简单易用的界面，无需掌握编程技能，即可使用一些直播的高级功能。",
		"_graphic": {
			"src": "course/en/images/co-400.png",
			"alt": "拍摄团队在现场拍摄视频"
		},
		"linkText": "查看",
		"durationLabel": "用时：",
		"duration": "8 分钟",
		"_pageLevelProgress": {
			"_isEnabled": true
		}
	},
	{
		"_id": "co-500",
		"_parentId": "course",
		"_type": "page",
		"_classes": "zh_cn",
		"height":"570",
		"title": "通过编程方式直播",
		"displayTitle": "通过编程方式直播",
		"pageBody": "自行开发 Facebook 平台应用，充分发挥 API 的强大威力。此外，您还可以预约直播和使用高级受众控件。",
		"body": "自行开发 Facebook 平台应用，充分发挥 API 的强大威力。此外，您还可以预约直播和使用高级受众控件。",
		"_graphic": {
			"src": "course/en/images/co-500.png",
			"alt": "四名程序员围聚在电脑屏幕前。"
		},
		"linkText": "查看",
		"durationLabel": "用时：",
		"duration": "4 分钟",
		"_pageLevelProgress": {
			"_isEnabled": true
		}
	},
	{
		"_id": "co-600",
		"_parentId": "course",
		"_type": "page",
		"_classes": "zh_cn",
		"height":"570",
		"title": "成功案例",
		"displayTitle": "成功案例",
		"pageBody": "本章节将介绍 Facebook 合作伙伴如何利用 Live API 取得显著成效。",
		"body": "本章节将介绍 Facebook 合作伙伴如何利用 Live API 取得显著成效。",
		"_graphic": {
			"src": "course/en/images/co-600.png",
			"alt": "同事们在办公室内交谈。"
		},
		"linkText": "查看",
		"durationLabel": "用时：",
		"duration": "6 分钟",
		"_pageLevelProgress": {
			"_isEnabled": true
		}
	},
	{
		"_id": "co-700",
		"_parentId": "course",
		"_type": "page",
		"_classes": "zh_cn",
		"height":"570",
		"title": "经验总结和最佳实践",
		"displayTitle": "经验总结和最佳实践",
		"pageBody": "了解如何解决一些常见问题以及预先做好防范措施。",
		"body": "了解如何解决一些常见问题以及预先做好防范措施。",
		"_graphic": {
			"src": "course/en/images/co-700.png",
			"alt": "同事们正就项目开展合作。"
		},
		"linkText": "查看",
		"durationLabel": "用时：",
		"duration": "6 分钟",
		"_pageLevelProgress": {
			"_isEnabled": true
		}
	},
	{
		"_id": "co-800",
		"_parentId": "course",
		"_type": "page",
		"_classes": "zh_cn",
		"height":"570",
		"title": "复习巩固",
		"displayTitle": "复习巩固",
		"pageBody": "花一点点时间快速完成自我评估，看看自己掌握了哪些知识。我们不会给您打分，请勿担心。",
		"body": "花一点点时间快速完成自我评估，看看自己掌握了哪些知识。我们不会给您打分，请勿担心。",
		"_graphic": {
			"src": "course/en/images/co-800.png",
			"alt": "对着电脑陷入了沉思的女性。"
		},
		"linkText": "查看",
		"durationLabel": "用时：",
		"duration": "4 分钟",
		"_pageLevelProgress": {
			"_isEnabled": true
		}
	}
]
